redist 3.0.0
…
Under the new workflow, a redistricting analysis begins with a redist_map object, which defines the basic parameters of the redistricting problem. The redist_map() constructor builds the precinct adjacency graph which is required for redistricting simulation, and stores relevant metadata, such as the desired population parity tolerance and a reference to the existing districts. It also comes with helpful plotting functions.

nc = redist_map(nc_shp, existing_plan=cd_17, pop_tol=0.01)
print(nc)

A redist_map object with 2692 units and 15 fields
To be partitioned into 13 districts with population between 733,498.7 - 1.0% and 733,498.7 + 1.0%
With geometry:
    bbox:           xmin: 406819.6 ymin: 2696.2 xmax: 3070217 ymax: 1043629
    projected CRS:  NAD83(HARN) / North Carolina (ftUS)
# A tibble: 2,692 x 15
   vtd       county   pop   vap el14g_uss_r el14g_uss_d el14g_uss_l
 * <chr>     <chr>  <int> <int>       <int>       <int>       <int>
 1 3700106W  37001   1973  1505         181         182          17
 2 3700112E  37001   3391  2503         180         271          21
 3 3700112W  37001   2744  2156         457         481          42
 4 3700106N  37001   4468  3167         231         466          31
 5 37001126  37001   2038  1713         670         416          38
 6 37001124  37001   2455  1948         491         391          33
 7 370011210 37001   2802  2127         358         309          31
 8 3700103N  37001   5712  4955        1063         853          53
 9 3700102   37001   4491  3483        1246         313          62
10 3700106E  37001   3113  2371         423         432          42
# ... with 2,682 more rows, and 8 more variables: el14g_uss_wi <int>,
#   el14g_uss_tot <int>, cd_13 <int>, cd_17 <int>, aland10 <dbl>,
#   awater10 <dbl>, geometry <MULTIPOLYGON [US_survey_foot]>,
#   adj <list>
…
Once we’ve created a redist_map object, we can simulate redistricting plans.

plans = redist_smc(nc, 1000, counties=county, silent=TRUE) # 1000 plans
print(plans)

1000 sampled plans and 1 reference plan with 13 districts from a 2692-unit map,
  drawn using Sequential Monte Carlo
With plans resampled from weights
Plans matrix: num [1:2692, 1:1001] 6 6 6 6 6 6 6 6 6 6 ...
# A tibble: 13,013 x 3
   draw  district total_pop
   <fct>    <int>     <dbl>
 1 cd_17        1    733323
 2 cd_17        2    734740
 3 cd_17        3    732627
 4 cd_17        4    733218
 5 cd_17        5    733879
 6 cd_17        6    733554
 7 cd_17        7    734750
 8 cd_17        8    734777
 9 cd_17        9    731507
10 cd_17       10    736057
# ... with 13,003 more rows
…
A redist_plans object makes it easy to compute plan and district summary statistics.

plans = plans %>%
    mutate(comp = distr_compactness(nc),
           dem_share = group_frac(nc, el14g_uss_d, el14g_uss_d + el14g_uss_r))
print(plans)

1000 sampled plans and 1 reference plan with 13 districts from a 2692-unit map,
  drawn using Sequential Monte Carlo
With plans resampled from weights
Plans matrix: num [1:2692, 1:1001] 6 6 6 6 6 6 6 6 6 6 ...
# A tibble: 13,013 x 5
   draw  district total_pop  comp dem_share
   <fct>    <int>     <dbl> <dbl>     <dbl>
 1 cd_17        1    733323 0.803     0.687
 2 cd_17        2    734740 0.803     0.443
 3 cd_17        3    732627 0.803     0.407
 4 cd_17        4    733218 0.803     0.674
 5 cd_17        5    733879 0.803     0.425
 6 cd_17        6    733554 0.803     0.441
 7 cd_17        7    734750 0.803     0.446
 8 cd_17        8    734777 0.803     0.439
 9 cd_17        9    731507 0.803     0.440
10 cd_17       10    736057 0.803     0.419
# ... with 13,003 more rows
…
We see immediately that the 2017 plan packs Democratic voters into the three most Democratic districts, and cracks them in the remaining 10 districts, leading to a durable 10–3 Republican-Democratic seat split (in an election which Democrats captured 49% of the statewide two-party vote). A clear partisan gerrymander.

Studying districts 1, 2, and 4

If we want to study a specific set of districts, we can quickly filter() to the relevant map area and re-run the analysis. The redist_map() object will handle all appropriate adjustments to the adjacency graph, number of districts, and population tolerance (as is visible below).

nc_sub = filter(nc, cd_17 %in% c(1, 2, 4))
print(nc_sub)

A redist_map object with 571 units and 15 fields
To be partitioned into 3 districts with population between 733,760.3 - 1.035301% and 733,760.3 + 0.9639859%
With geometry:
    bbox:           xmin: 1921644 ymin: 524882.4 xmax: 2784102 ymax: 1028248
    projected CRS:  NAD83(HARN) / North Carolina (ftUS)
# A tibble: 571 x 15
   vtd     county   pop   vap el14g_uss_r el14g_uss_d el14g_uss_l
 * <chr>   <chr>  <int> <int>       <int>       <int>       <int>
 1 37015C2 37015   2182  1707         174         503          13
 2 37015M1 37015   1103   849         172         167           5
 3 37015C1 37015   1229   986         229         184          11
 4 37015MH 37015    992   811         146         254          12
 5 37015W2 37015    966   764         286          47          20
 6 37015W1 37015   7005  5703         596        1190          44
 7 37015M2 37015   1290   983          99         239          16
 8 37015SN 37015   1410  1025          63         327          11
 9 37015WH 37015   1554  1274         292         262          12
10 37015WD 37015   1409  1050          35         319           5
# ... with 561 more rows, and 8 more variables: el14g_uss_wi <int>,
#   el14g_uss_tot <int>, cd_13 <int>, cd_17 <int>, aland10 <dbl>,
#   awater10 <dbl>, geometry <MULTIPOLYGON [US_survey_foot]>,
#   adj <list>
…
