redist 3.0 – ALARM Project
…
download.file("https://github.com/alarm-redist/redist-data/raw/main/data/nc.rds",
              data_path <- tempfile())
nc_shp <- readRDS(data_path) %>%
    select(vtd:vap, el14g_uss_r:geometry)

Under the new workflow, a redistricting analysis begins with a redist_map object, which defines the basic parameters of the redistricting problem. The redist_map() constructor builds the precinct adjacency graph which is required for redistricting simulation, and stores relevant metadata, such as the desired population parity tolerance and a reference to the existing districts. It also comes with helpful plotting functions.

nc = redist_map(nc_shp, existing_plan=cd_17, pop_tol=0.01)
print(nc)

To be partitioned into 13 districts with population between 733,498.7 - 1.0% and 733,498.7 + 1.0%
With geometry:
    bbox:           xmin: 406819.6 ymin: 2696.2 xmax: 3070217 ymax: 1043629
    projected CRS:  NAD83(HARN) / North Carolina (ftUS)
# A tibble: 2,692 × 15
   vtd       county   pop   vap el14g_uss_r el14g_uss_d el14g_uss_l el14g_uss_wi
 * <chr>     <chr>  <int> <int>       <int>       <int>       <int>        <int>
 1 3700106W  37001   1973  1505         181         182          17            1
 2 3700112E  37001   3391  2503         180         271          21            0
 3 3700112W  37001   2744  2156         457         481          42            1
 4 3700106N  37001   4468  3167         231         466          31            2
 5 37001126  37001   2038  1713         670         416          38            0
 6 37001124  37001   2455  1948         491         391          33            1
 7 370011210 37001   2802  2127         358         309          31            0
 8 3700103N  37001   5712  4955        1063         853          53            3
 9 3700102   37001   4491  3483        1246         313          62            2
10 3700106E  37001   3113  2371         423         432          42            4
# ℹ 2,682 more rows
# ℹ 7 more variables: el14g_uss_tot <int>, cd_13 <int>, cd_17 <int>,
#   aland10 <dbl>, awater10 <dbl>, geometry <MULTIPOLYGON [US_survey_foot]>,
#   adj <list>
…
Once we’ve created a redist_map object, we can simulate redistricting plans.

plans = redist_smc(nc, 1000, counties=county, silent=TRUE) # 1000 plans
print(plans)

A <redist_plans> containing 1,000 sampled plans and 1 reference plan

Plans have 13 districts from a 2,692-unit map, and were drawn using Sequential
Monte Carlo.

With plans resampled from weights
Plans matrix: int [1:2692, 1:1001] 1 1 1 1 1 1 1 1 1 1 ...
# A tibble: 13,013 × 3
   draw  district total_pop
   <fct>    <int>     <dbl>
 1 cd_17        1    733554
 2 cd_17        2    733879
 3 cd_17        3    731507
 4 cd_17        4    732627
 5 cd_17        5    733323
 6 cd_17        6    734750
 7 cd_17        7    736057
 8 cd_17        8    733447
 9 cd_17        9    734777
10 cd_17       10    729710
# ℹ 13,003 more rows
…
print(plans)

A <redist_plans> containing 1,000 sampled plans and 1 reference plan

Plans have 13 districts from a 2,692-unit map, and were drawn using Sequential
Monte Carlo.

With plans resampled from weights
Plans matrix: int [1:2692, 1:1001] 1 1 1 1 1 1 1 1 1 1 ...
# A tibble: 13,013 × 5
   draw  district total_pop  comp dem_share
   <fct>    <int>     <dbl> <dbl>     <dbl>
 1 cd_17        1    733554 0.951     0.441
 2 cd_17        2    733879 0.951     0.425
 3 cd_17        3    731507 0.951     0.440
 4 cd_17        4    732627 0.951     0.407
 5 cd_17        5    733323 0.951     0.687
 6 cd_17        6    734750 0.951     0.446
 7 cd_17        7    736057 0.951     0.419
 8 cd_17        8    733447 0.951     0.416
 9 cd_17        9    734777 0.951     0.439
10 cd_17       10    729710 0.951     0.458
# ℹ 13,003 more rows
…
Studying districts 1, 2, and 4

If we want to study a specific set of districts, we can quickly filter() to the relevant map area and re-run the analysis. The redist_map() object will handle all appropriate adjustments to the adjacency graph, number of districts, and population tolerance (as is visible below).

nc_sub = filter(nc, cd_17 %in% c(1, 2, 4))
print(nc_sub)

A <redist_map> with 571 units and 15 fields

To be partitioned into 3 districts with population between 733,498.7 - 1.0% and 733,498.7 + 1.0%
With geometry:
    bbox:           xmin: 1921644 ymin: 524882.4 xmax: 2784102 ymax: 1028248
    projected CRS:  NAD83(HARN) / North Carolina (ftUS)
# A tibble: 571 × 15
   vtd     county   pop   vap el14g_uss_r el14g_uss_d el14g_uss_l el14g_uss_wi
 * <chr>   <chr>  <int> <int>       <int>       <int>       <int>        <int>
 1 37015C2 37015   2182  1707         174         503          13            0
 2 37015M1 37015   1103   849         172         167           5            0
 3 37015C1 37015   1229   986         229         184          11            0
 4 37015MH 37015    992   811         146         254          12            0
 5 37015W2 37015    966   764         286          47          20            0
 6 37015W1 37015   7005  5703         596        1190          44            2
 7 37015M2 37015   1290   983          99         239          16            0
 8 37015SN 37015   1410  1025          63         327          11            0
 9 37015WH 37015   1554  1274         292         262          12            0
10 37015WD 37015   1409  1050          35         319           5            0
# ℹ 561 more rows
# ℹ 7 more variables: el14g_uss_tot <int>, cd_13 <int>, cd_17 <int>,
#   aland10 <dbl>, awater10 <dbl>, geometry <MULTIPOLYGON [US_survey_foot]>,
#   adj <list>
…
