redist 101 – ALARM Project
…
Building Data Objects

redist_map

The first step in a redist analysis is to create the redist_map object, which stores the basic parameters of the redistricting problem. Here, we use redist_map objects that can be downloaded from the 50-State Redistricting Simulations using the alarmdata package.

map_nc <- alarm_50state_map("NC")
print(map_nc)

To be partitioned into 14 districts with population between 745,670.6 - 0.5% and 745,670.6 + 0.5%
With geometry:
    bbox:           xmin: 124003.2 ymin: 821.8034 xmax: 935804 ymax: 318096.6
    projected CRS:  NAD83(HARN) / North Carolina
# A tibble: 2,666 × 59
   GEOID   state county muni  county_muni cd_2010 vtd     pop pop_hisp pop_white
 * <chr>   <chr> <chr>  <chr> <chr>         <int> <chr> <dbl>    <dbl>     <dbl>
 1 370010… NC    Alama… <NA>  Alamance C…       6 0000…  5135      251      4420
 2 370010… NC    Alama… <NA>  Alamance C…       6 0000…  4771      190      4225
 3 370010… NC    Alama… <NA>  Alamance C…       6 0000…  5427      231      4536
 4 370010… NC    Alama… <NA>  Alamance C…       6 0000…  3399      179      2926
 5 370010… NC    Alama… <NA>  Alamance C…       6 0000…  4456      318      3675
 6 370010… NC    Alama… <NA>  Alamance C…       6 0000…  4741      521      2491
 7 370010… NC    Alama… <NA>  Alamance C…       6 0000…  6190     1506      2655
 8 370010… NC    Alama… 21095 Alamance C…       6 0000…  8320      596      6321
 9 370010… NC    Alama… 09060 Alamance C…       6 0000…  2755      161      2256
10 370010… NC    Alama… 21095 Alamance C…       6 0000…  5578      262      4539
# ℹ 2,656 more rows
# ℹ 49 more variables: pop_black <dbl>, pop_aian <dbl>, pop_asian <dbl>,
#   pop_nhpi <dbl>, pop_other <dbl>, pop_two <dbl>, vap <dbl>, vap_hisp <dbl>,
#   vap_white <dbl>, vap_black <dbl>, vap_aian <dbl>, vap_asian <dbl>,
#   vap_nhpi <dbl>, vap_other <dbl>, vap_two <dbl>, pre_16_rep_tru <dbl>,
#   pre_16_dem_cli <dbl>, uss_16_rep_bur <dbl>, uss_16_dem_ros <dbl>,
#   gov_16_rep_mcc <dbl>, gov_16_dem_coo <dbl>, atg_16_rep_new <dbl>, …
…
get_pop_tol(map_nc)

[1] 0.005

As you can see above, the population tolerance of map_nc is 0.005. This means that all plans must be within 0.5% of population equality. This is why you can see the output message of redist_smc() shows following.

redist_smc(map_nc, 10)

SEQUENTIAL MONTE CARLO
Sampling 10 2666-unit maps with 14 districts and population between 741942 and 749399.

With plans resampled from weights
Plans matrix: int [1:2666, 1:11] 1 1 1 1 1 1 1 1 1 1 ...
# A tibble: 154 × 3
   draw    district total_pop
   <fct>      <int>     <dbl>
 1 cd_2020        1    745033
 2 cd_2020        2    744646
 3 cd_2020        3    747128
 4 cd_2020        4    745889
 5 cd_2020        5    745852
 6 cd_2020        6    745599
 7 cd_2020        7    746762
 8 cd_2020        8    745420
 9 cd_2020        9    747640
10 cd_2020       10    746272
# ℹ 144 more rows

As you can see, all the total_pop should be within between 741,942 and 749,399, which is 0.5% of population equality.

Then, let’s change the population tolerance with set_pop_tol() function. Here, we will set pop_tol into 0.05 (5%).

map_nc_constr <- set_pop_tol(map_nc, 0.05)
redist_smc(map_nc_constr, 10)

SEQUENTIAL MONTE CARLO
Sampling 10 2666-unit maps with 14 districts and population between 708387 and 782954.

With plans resampled from weights
Plans matrix: int [1:2666, 1:11] 1 1 1 1 1 1 1 1 1 1 ...
# A tibble: 154 × 3
   draw    district total_pop
   <fct>      <int>     <dbl>
 1 cd_2020        1    745033
 2 cd_2020        2    744646
 3 cd_2020        3    747128
 4 cd_2020        4    745889
 5 cd_2020        5    745852
 6 cd_2020        6    745599
 7 cd_2020        7    746762
 8 cd_2020        8    745420
 9 cd_2020        9    747640
10 cd_2020       10    746272
# ℹ 144 more rows
…
